{
  "response": {
    "status": "ok",
    "userTier": "developer",
    "total": 33689,
    "startIndex": 1,
    "pageSize": 10,
    "currentPage": 1,
    "pages": 3369,
    "orderBy": "relevance",
    "results": [
      {
        "id": "us-news/2023/apr/25/joe-biden-white-house-2024-reelection-campaign",
        "type": "article",
        "sectionId": "us-news",
        "sectionName": "US news",
        "webPublicationDate": "2023-04-25T18:48:33Z",
        "webTitle": "Joe Biden formally announces 2024 White House run",
        "webUrl": "https://www.theguardian.com/us-news/2023/apr/25/joe-biden-white-house-2024-reelection-campaign",
        "apiUrl": "https://content.guardianapis.com/us-news/2023/apr/25/joe-biden-white-house-2024-reelection-campaign",
        "isHosted": false,
        "pillarId": "pillar/news",
        "pillarName": "News"
      },
      {
        "id": "us-news/2023/apr/25/first-thing-joe-biden-announces-2024-re-election-campaign",
        "type": "article",
        "sectionId": "us-news",
        "sectionName": "US news",
        "webPublicationDate": "2023-04-25T10:22:51Z",
        "webTitle": "Biden announces 2024 re-election campaign | First Thing",
        "webUrl": "https://www.theguardian.com/us-news/2023/apr/25/first-thing-joe-biden-announces-2024-re-election-campaign",
        "apiUrl": "https://content.guardianapis.com/us-news/2023/apr/25/first-thing-joe-biden-announces-2024-re-election-campaign",
        "isHosted": false,
        "pillarId": "pillar/news",
        "pillarName": "News"
      },
      {
        "id": "world/2023/may/17/quad-summit-meeting-cancelled-joe-biden-calls-off-australia-trip",
        "type": "article",
        "sectionId": "world",
        "sectionName": "World news",
        "webPublicationDate": "2023-05-17T07:01:59Z",
        "webTitle": "Quad summit cancelled after Joe Biden calls off trip to Australia ",
        "webUrl": "https://www.theguardian.com/world/2023/may/17/quad-summit-meeting-cancelled-joe-biden-calls-off-australia-trip",
        "apiUrl": "https://content.guardianapis.com/world/2023/may/17/quad-summit-meeting-cancelled-joe-biden-calls-off-australia-trip",
        "isHosted": false,
        "pillarId": "pillar/news",
        "pillarName": "News"
      },
      {
        "id": "uk-news/2023/apr/06/joe-biden-accepts-king-charless-invitation-for-state-visit",
        "type": "article",
        "sectionId": "uk-news",
        "sectionName": "UK news",
        "webPublicationDate": "2023-04-05T23:22:19Z",
        "webTitle": "Joe Biden accepts King Charles’s invitation for state visit",
        "webUrl": "https://www.theguardian.com/uk-news/2023/apr/06/joe-biden-accepts-king-charless-invitation-for-state-visit",
        "apiUrl": "https://content.guardianapis.com/uk-news/2023/apr/06/joe-biden-accepts-king-charless-invitation-for-state-visit",
        "isHosted": false,
        "pillarId": "pillar/news",
        "pillarName": "News"
      },
      {
        "id": "us-news/2023/apr/30/joe-biden-hails-absolute-courage-of-detained-journalist-evan-gershkovich",
        "type": "article",
        "sectionId": "us-news",
        "sectionName": "US news",
        "webPublicationDate": "2023-04-30T05:02:39Z",
        "webTitle": "Joe Biden hails ‘absolute courage’ of detained journalist Evan Gershkovich",
        "webUrl": "https://www.theguardian.com/us-news/2023/apr/30/joe-biden-hails-absolute-courage-of-detained-journalist-evan-gershkovich",
        "apiUrl": "https://content.guardianapis.com/us-news/2023/apr/30/joe-biden-hails-absolute-courage-of-detained-journalist-evan-gershkovich",
        "isHosted": false,
        "pillarId": "pillar/news",
        "pillarName": "News"
      },
      {
        "id": "uk-news/2023/apr/12/joe-biden-is-not-anti-british-says-senior-presidential-aide",
        "type": "article",
        "sectionId": "uk-news",
        "sectionName": "UK news",
        "webPublicationDate": "2023-04-12T09:58:37Z",
        "webTitle": "Joe Biden is ‘not anti-British’, says senior presidential aide",
        "webUrl": "https://www.theguardian.com/uk-news/2023/apr/12/joe-biden-is-not-anti-british-says-senior-presidential-aide",
        "apiUrl": "https://content.guardianapis.com/uk-news/2023/apr/12/joe-biden-is-not-anti-british-says-senior-presidential-aide",
        "isHosted": false,
        "pillarId": "pillar/news",
        "pillarName": "News"
      },
      {
        "id": "world/2023/apr/14/joe-biden-returns-county-mayo-roots-last-leg-ireland-tour",
        "type": "article",
        "sectionId": "world",
        "sectionName": "World news",
        "webPublicationDate": "2023-04-14T22:36:33Z",
        "webTitle": "Joe Biden ends Ireland tour with passionate address to thousands",
        "webUrl": "https://www.theguardian.com/world/2023/apr/14/joe-biden-returns-county-mayo-roots-last-leg-ireland-tour",
        "apiUrl": "https://content.guardianapis.com/world/2023/apr/14/joe-biden-returns-county-mayo-roots-last-leg-ireland-tour",
        "isHosted": false,
        "pillarId": "pillar/news",
        "pillarName": "News"
      },
      {
        "id": "business/2023/may/07/can-joe-biden-escape-the-fallout-from-the-us-banking-crisis",
        "type": "article",
        "sectionId": "business",
        "sectionName": "Business",
        "webPublicationDate": "2023-05-07T10:35:03Z",
        "webTitle": "Can Joe Biden escape the fallout from the US banking crisis? | Larry Elliott",
        "webUrl": "https://www.theguardian.com/business/2023/may/07/can-joe-biden-escape-the-fallout-from-the-us-banking-crisis",
        "apiUrl": "https://content.guardianapis.com/business/2023/may/07/can-joe-biden-escape-the-fallout-from-the-us-banking-crisis",
        "isHosted": false,
        "pillarId": "pillar/news",
        "pillarName": "News"
      },
      {
        "id": "us-news/2023/apr/03/joe-biden-king-charles-coronation-may",
        "type": "article",
        "sectionId": "us-news",
        "sectionName": "US news",
        "webPublicationDate": "2023-04-03T14:43:37Z",
        "webTitle": "Joe Biden set to skip King Charles coronation in May",
        "webUrl": "https://www.theguardian.com/us-news/2023/apr/03/joe-biden-king-charles-coronation-may",
        "apiUrl": "https://content.guardianapis.com/us-news/2023/apr/03/joe-biden-king-charles-coronation-may",
        "isHosted": false,
        "pillarId": "pillar/news",
        "pillarName": "News"
      },
      {
        "id": "us-news/2023/apr/12/huge-honour-ireland-breaks-out-the-bunting-for-joe-biden",
        "type": "article",
        "sectionId": "us-news",
        "sectionName": "US news",
        "webPublicationDate": "2023-04-12T18:46:03Z",
        "webTitle": "‘Huge honour’: Ireland breaks out the bunting for Joe Biden",
        "webUrl": "https://www.theguardian.com/us-news/2023/apr/12/huge-honour-ireland-breaks-out-the-bunting-for-joe-biden",
        "apiUrl": "https://content.guardianapis.com/us-news/2023/apr/12/huge-honour-ireland-breaks-out-the-bunting-for-joe-biden",
        "isHosted": false,
        "pillarId": "pillar/news",
        "pillarName": "News"
      }
    ]
  }
}